Task 3/CA_Proj_p3.sim/sim_1/behav/xsim/dump.vcd
$date
   Tue Apr 30 08:44:54 2024
$end
$version
  2020.1
$end
$timescale
  1ps
$end
$scope module tb $end
$var reg 1 ! clk $end
$var reg 1 " reset $end
$var wire 64 # e5 [63:0] $end
$var wire 64 $ e4 [63:0] $end
$var wire 64 % e3 [63:0] $end
$var wire 64 & e2 [63:0] $end
$var wire 64 ' e1 [63:0] $end
$scope module t1 $end
$var wire 1 ( clk $end
$var wire 1 ) reset $end
$var wire 64 * r1 [63:0] $end
$var wire 64 + r2 [63:0] $end
$var wire 64 , r3 [63:0] $end
$var wire 64 - r4 [63:0] $end
$var wire 64 . r5 [63:0] $end
$var wire 64 # ele1 [63:0] $end
$var wire 64 $ ele2 [63:0] $end
$var wire 64 % ele3 [63:0] $end
$var wire 64 & ele4 [63:0] $end
$var wire 64 ' ele5 [63:0] $end
$var wire 64 / PC_to_IM [63:0] $end
$var wire 32 0 IM_to_IFID [31:0] $end
$var wire 7 1 opcode_out [6:0] $end
$var wire 5 2 rd_out [4:0] $end
$var wire 3 3 funct3_out [2:0] $end
$var wire 7 4 funct7_out [6:0] $end
$var wire 5 5 rs1_out [4:0] $end
$var wire 5 6 rs2_out [4:0] $end
$var wire 1 7 Branch_out $end
$var wire 1 8 MemRead_out $end
$var wire 1 9 MemtoReg_out $end
$var wire 1 : MemWrite_out $end
$var wire 1 ; ALUSrc_out $end
$var wire 1 < RegWrite_out $end
$var wire 1 = Is_Greater_out $end
$var wire 2 > ALUOp_out [1:0] $end
$var wire 64 ? mux_to_reg [63:0] $end
$var wire 64 @ mux_to_pc_in [63:0] $end
$var wire 4 A ALU_C_Operation [3:0] $end
$var wire 64 B ReadData1_out [63:0] $end
$var wire 64 C ReadData2_out [63:0] $end
$var wire 64 D imm_data_out [63:0] $end
$var wire 64 E fixed_4 [63:0] $end
$var wire 64 F PC_plus_4_to_mux [63:0] $end
$var wire 64 G alu_mux_out [63:0] $end
$var wire 64 H alu_result_out [63:0] $end
$var wire 1 I zero_out $end
$var wire 64 J imm_to_adder [63:0] $end
$var wire 64 K imm_adder_to_mux [63:0] $end
$var wire 64 L DM_Read_Data_out [63:0] $end
$var wire 1 M pc_mux_sel_wire $end
$var wire 1 N PCWrite_out $end
$var wire 1 O IDEX_Branch_out $end
$var wire 1 P IDEX_MemRead_out $end
$var wire 1 Q IDEX_MemtoReg_out $end
$var wire 1 R IDEX_MemWrite_out $end
$var wire 1 S IDEX_ALUSrc_out $end
$var wire 1 T IDEX_RegWrite_out $end
$var wire 64 U IDEX_PC_addr [63:0] $end
$var wire 64 V IDEX_ReadData1_out [63:0] $end
$var wire 64 W IDEX_ReadData2_out [63:0] $end
$var wire 64 X IDEX_imm_data_out [63:0] $end
$var wire 4 Y IDEX_funct_in [3:0] $end
$var wire 5 Z IDEX_rd_out [4:0] $end
$var wire 5 [ IDEX_rs1_out [4:0] $end
$var wire 5 \ IDEX_rs2_out [4:0] $end
$var wire 2 ] IDEX_ALUOp_out [1:0] $end
$var wire 1 ^ EXMEM_Branch_out $end
$var wire 1 _ EXMEM_MemRead_out $end
$var wire 1 ` EXMEM_MemtoReg_out $end
$var wire 1 a EXMEM_MemWrite_out $end
$var wire 1 b EXMEM_RegWrite_out $end
$var wire 1 c EXMEM_zero_out $end
$var wire 1 d EXMEM_Is_Greater_out $end
$var wire 64 e EXMEM_PC_plus_imm [63:0] $end
$var wire 64 f EXMEM_alu_result_out [63:0] $end
$var wire 64 g EXMEM_ReadData2_out [63:0] $end
$var wire 4 h EXMEM_funct_in [3:0] $end
$var wire 5 i EXMEM_rd_out [4:0] $end
$var wire 1 j Flush_out $end
$var wire 1 k MEMWB_MemtoReg_out $end
$var wire 1 l MEMWB_RegWrite_out $end
$var wire 64 m MEMWB_DM_Read_Data_out [63:0] $end
$var wire 64 n MEMWB_alu_result_out [63:0] $end
$var wire 5 o MEMWB_rd_out [4:0] $end
$var wire 64 p IFID_PC_addr [63:0] $end
$var wire 32 q IFID_IM_to_parse [31:0] $end
$var wire 1 r IFID_Write_out $end
$var wire 1 s control_mux_sel $end
$var wire 4 t funct_in [3:0] $end
$var wire 2 u ALUop_IDEXin [1:0] $end
$var wire 2 v fwd_A_out [1:0] $end
$var wire 2 w fwd_B_out [1:0] $end
$var wire 64 x triplemux_to_a [63:0] $end
$var wire 64 y triplemux_to_b [63:0] $end
$var wire 64 z pcplusimm_to_EXMEM [63:0] $end
$var wire 1 { MemtoReg_IDEXin $end
$var wire 1 | RegWrite_IDEXin $end
$var wire 1 } Branch_IDEXin $end
$var wire 1 ~ MemWrite_IDEXin $end
$var wire 1 !! MemRead_IDEXin $end
$var wire 1 "! ALUSrc_IDEXin $end
$scope module pcsrcmux $end
$var wire 64 e a [63:0] $end
$var wire 64 F b [63:0] $end
$var wire 1 M sel $end
$var wire 64 @ data_out [63:0] $end
$upscope $end
$scope module PC $end
$var wire 1 ( clk $end
$var wire 1 ) reset $end
$var wire 1 N PCWrite $end
$var wire 64 @ PC_In [63:0] $end
$var reg 64 #! PC_Out [63:0] $end
$var reg 1 $! reset_force $end
$upscope $end
$scope module pcadder $end
$var wire 64 / a [63:0] $end
$var wire 64 E b [63:0] $end
$var reg 64 %! out [63:0] $end
$upscope $end
$scope module insmem $end
$var wire 64 / Inst_Address [63:0] $end
$var reg 32 &! Instruction [31:0] $end
$upscope $end
$scope module IF_ID $end
$var wire 1 ( clk $end
$var wire 1 r IFID_Write $end
$var wire 1 j Flush $end
$var wire 64 / PC_addr [63:0] $end
$var wire 32 0 Instruc [31:0] $end
$var reg 64 '! PC_store [63:0] $end
$var reg 32 (! Instr_store [31:0] $end
$upscope $end
$scope module hu $end
$var wire 5 Z current_rd [4:0] $end
$var wire 5 5 previous_rs1 [4:0] $end
$var wire 5 6 previous_rs2 [4:0] $end
$var wire 1 P current_MemRead $end
$var reg 1 )! mux_out $end
$var reg 1 *! enable_Write $end
$var reg 1 +! enable_PCWrite $end
$upscope $end
$scope module ip $end
$var wire 32 q instruction [31:0] $end
$var wire 7 1 opcode [6:0] $end
$var wire 7 4 funct7 [6:0] $end
$var wire 5 2 rd [4:0] $end
$var wire 5 5 rs1 [4:0] $end
$var wire 5 6 rs2 [4:0] $end
$var wire 3 3 funct3 [2:0] $end
$upscope $end
$scope module Ctrlunit $end
$var wire 7 1 Opcode [6:0] $end
$var reg 1 ,! Branch $end
$var reg 1 -! MemRead $end
$var reg 1 .! MemtoReg $end
$var reg 1 /! MemWrite $end
$var reg 1 0! ALUSrc $end
$var reg 1 1! RegWrite $end
$var reg 2 2! ALUOp [1:0] $end
$upscope $end
$scope module regfile $end
$var wire 1 ( clk $end
$var wire 1 ) reset $end
$var wire 1 l RegWrite $end
$var wire 64 ? WriteData [63:0] $end
$var wire 5 5 RS1 [4:0] $end
$var wire 5 6 RS2 [4:0] $end
$var wire 5 o RD [4:0] $end
$var reg 64 3! ReadData1 [63:0] $end
$var reg 64 4! ReadData2 [63:0] $end
$var wire 64 * r1 [63:0] $end
$var wire 64 + r2 [63:0] $end
$var wire 64 , r3 [63:0] $end
$var wire 64 - r4 [63:0] $end
$var wire 64 . r5 [63:0] $end
$var integer 32 5! i $end
$upscope $end
$scope module Imm_gen $end
$var wire 32 q instruction [31:0] $end
$var reg 64 6! imm_data [63:0] $end
$var wire 7 7! opcode [6:0] $end
$upscope $end
$scope module ID_EX_Stage $end
$var wire 1 ( clk $end
$var wire 1 j Flush $end
$var wire 64 p program_counter_addr [63:0] $end
$var wire 64 B read_data1 [63:0] $end
$var wire 64 C read_data2 [63:0] $end
$var wire 64 D immediate_value [63:0] $end
$var wire 4 t function_code [3:0] $end
$var wire 5 2 destination_reg [4:0] $end
$var wire 5 5 source_reg1 [4:0] $end
$var wire 5 6 source_reg2 [4:0] $end
$var wire 1 | MemtoReg $end
$var wire 1 { RegWrite $end
$var wire 1 } Branch $end
$var wire 1 ~ MemWrite $end
$var wire 1 !! MemRead $end
$var wire 1 "! ALUSrc $end
$var wire 2 u ALU_op [1:0] $end
$var reg 64 8! program_counter_addr_out [63:0] $end
$var reg 64 9! read_data1_out [63:0] $end
$var reg 64 :! read_data2_out [63:0] $end
$var reg 64 ;! immediate_value_out [63:0] $end
$var reg 4 <! function_code_out [3:0] $end
$var reg 5 =! destination_reg_out [4:0] $end
$var reg 5 >! source_reg1_out [4:0] $end
$var reg 5 ?! source_reg2_out [4:0] $end
$var reg 1 @! MemtoReg_out $end
$var reg 1 A! RegWrite_out $end
$var reg 1 B! Branch_out $end
$var reg 1 C! MemWrite_out $end
$var reg 1 D! MemRead_out $end
$var reg 1 E! ALUSrc_out $end
$var reg 2 F! ALU_op_out [1:0] $end
$upscope $end
$scope module ALU_Control1 $end
$var wire 2 ] ALUOp [1:0] $end
$var wire 4 Y Funct [3:0] $end
$var reg 4 G! Operation [3:0] $end
$upscope $end
$scope module ALU_mux $end
$var wire 64 X a [63:0] $end
$var wire 64 y b [63:0] $end
$var wire 1 S sel $end
$var wire 64 G data_out [63:0] $end
$upscope $end
$scope module muxFwd_a $end
$var wire 64 V a [63:0] $end
$var wire 64 ? b [63:0] $end
$var wire 64 f c [63:0] $end
$var wire 2 v sel [1:0] $end
$var reg 64 H! data_out [63:0] $end
$upscope $end
$scope module muxFwd_b $end
$var wire 64 W a [63:0] $end
$var wire 64 ? b [63:0] $end
$var wire 64 f c [63:0] $end
$var wire 2 w sel [1:0] $end
$var reg 64 I! data_out [63:0] $end
$upscope $end
$scope module ALU64 $end
$var wire 64 x a [63:0] $end
$var wire 64 G b [63:0] $end
$var wire 4 A ALUOp [3:0] $end
$var reg 64 J! Result [63:0] $end
$var reg 1 K! Zero $end
$var reg 1 L! is_greater $end
$var wire 1 M! ZERO $end
$var parameter 4 N! AND [3:0] $end
$var parameter 4 O! OR [3:0] $end
$var parameter 4 P! ADD [3:0] $end
$var parameter 4 Q! Sub [3:0] $end
$var parameter 4 R! NOR [3:0] $end
$var parameter 4 S! Lesser [3:0] $end
$var parameter 4 T! LeftShift [3:0] $end
$upscope $end
$scope module Fwd_unit $end
$var wire 5 i EXMEM_rd [4:0] $end
$var wire 5 o MEMWB_rd [4:0] $end
$var wire 5 [ IDEX_rs1 [4:0] $end
$var wire 5 \ IDEX_rs2 [4:0] $end
$var wire 1 b EXMEM_RegWrite $end
$var wire 1 ` EXMEM_MemtoReg $end
$var wire 1 l MEMWB_RegWrite $end
$var reg 2 U! fwd_A [1:0] $end
$var reg 2 V! fwd_B [1:0] $end
$upscope $end
$scope module PC_plus_imm $end
$var wire 64 U a [63:0] $end
$var wire 64 J b [63:0] $end
$var reg 64 W! out [63:0] $end
$upscope $end
$scope module EX_MEM $end
$var wire 1 ( clk $end
$var wire 1 j Flush $end
$var wire 1 T RegWrite $end
$var wire 1 Q MemtoReg $end
$var wire 1 O Branch $end
$var wire 1 I Zero $end
$var wire 1 R MemWrite $end
$var wire 1 P MemRead $end
$var wire 1 = is_greater $end
$var wire 64 z immvalue_added_pc [63:0] $end
$var wire 64 H ALU_result [63:0] $end
$var wire 64 y WriteData [63:0] $end
$var wire 4 Y function_code [3:0] $end
$var wire 5 Z destination_reg [4:0] $end
$var reg 1 X! RegWrite_out $end
$var reg 1 Y! MemtoReg_out $end
$var reg 1 Z! Branch_out $end
$var reg 1 [! Zero_out $end
$var reg 1 \! MemWrite_out $end
$var reg 1 ]! MemRead_out $end
$var reg 1 ^! is_greater_out $end
$var reg 64 _! immvalue_added_pc_out [63:0] $end
$var reg 64 `! ALU_result_out [63:0] $end
$var reg 64 a! WriteData_out [63:0] $end
$var reg 4 b! function_code_out [3:0] $end
$var reg 5 c! destination_reg_out [4:0] $end
$upscope $end
$scope module Branch_Control $end
$var wire 1 ^ Branch $end
$var wire 1 c Zero $end
$var wire 1 d Is_Greater_Than $end
$var wire 4 h funct [3:0] $end
$var reg 1 d! switch $end
$var reg 1 e! Flush $end
$upscope $end
$scope module dm $end
$var wire 64 f Mem_Addr [63:0] $end
$var wire 64 g Write_Data [63:0] $end
$var wire 1 ( clk $end
$var wire 1 a MemWrite $end
$var wire 1 _ MemRead $end
$var reg 64 f! Read_Data [63:0] $end
$var wire 64 # ele1 [63:0] $end
$var wire 64 $ ele2 [63:0] $end
$var wire 64 % ele3 [63:0] $end
$var wire 64 & ele4 [63:0] $end
$var wire 64 ' ele5 [63:0] $end
$var integer 32 g! i $end
$upscope $end
$scope module MEM_WBStage $end
$var wire 1 ( clk $end
$var wire 1 b RegWrite $end
$var wire 1 ` MemtoReg $end
$var wire 64 L ReadData [63:0] $end
$var wire 64 f ALU_result [63:0] $end
$var wire 5 i destination_reg [4:0] $end
$var reg 1 h! RegWrite_out $end
$var reg 1 i! MemtoReg_out $end
$var reg 64 j! ReadData_out [63:0] $end
$var reg 64 k! ALU_result_out [63:0] $end
$var reg 5 l! destination_reg_out [4:0] $end
$upscope $end
$scope module mux2 $end
$var wire 64 m a [63:0] $end
$var wire 64 n b [63:0] $end
$var wire 1 k sel $end
$var wire 64 ? data_out [63:0] $end
$upscope $end
$upscope $end
$upscope $end
$enddefinitions $end
#0
$dumpvars
0!
x!!
1"
x"!
b10100 #
b0 #!
b1010 $
0$!
b11110 %
b100 %!
b101000 &
b11000000000010110010011 &!
b110010 '
bx '!
0(
bx (!
1)
x)!
b0 *
x*!
b111 +
x+!
b1000 ,
x,!
b0 -
x-!
b0 .
x.!
b0 /
x/!
b11000000000010110010011 0
x0!
bx 1
x1!
bx 2
bx 2!
bx 3
b0 3!
bx 4
b0 4!
bx 5
b100000 5!
bx 6
bx 6!
x7
bx 7!
x8
bx 8!
x9
bx 9!
x:
bx :!
x;
bx ;!
x<
bx <!
x=
bx =!
bx >
bx >!
bx ?
bx ?!
bx @
x@!
bx A
xA!
b0 B
xB!
b0 C
xC!
bx D
xD!
b100 E
xE!
b100 F
bx F!
bx G
bx G!
bx H
bx H!
xI
bx I!
bx0 J
bx J!
bz K
xK!
bx L
xL!
xM
xM!
xN
b0 N!
xO
b1 O!
xP
b10 P!
xQ
b110 Q!
xR
b1100 R!
xS
b100 S!
xT
b111 T!
bx U
bx U!
bx V
bx V!
bx W
bx W!
bx X
xX!
bx Y
xY!
bx Z
xZ!
bx [
x[!
bx \
x\!
bx ]
x]!
x^
x^!
x_
bx _!
x`
bx `!
xa
bx a!
xb
bx b!
xc
bx c!
xd
xd!
bx e
xe!
bx f
bx f!
bx g
b1000000000 g!
bx h
xh!
bx i
xi!
xj
bx j!
xk
bx k!
xl
bx l!
bx m
bx n
bx o
bx p
bx q
xr
xs
bx t
bx u
bx v
bx w
bx x
bx y
bx z
x{
x|
x}
x~
$end
#5000
1!
0!!
1"!
b0 #!
0$!
b0 '!
1(
b11000000000010110010011 (!
1)!
1*!
1+!
0,!
0-!
0.!
0/!
10!
b10011 1
11!
b1011 2
b0 2!
b0 3
b0 3!
b0 4
b0 4!
b0 5
b110 6
b110 6!
07
b10011 7!
08
bx 8!
09
b0 9!
0:
b0 :!
1;
bx ;!
1<
bx <!
bx =!
b0 >
bx >!
bx ?!
x@!
xA!
xB!
xC!
b110 D
xD!
xE!
bx F!
bx G
b0 H
b0xx H!
1I
b0xx I!
b0 J!
1K!
xL!
1M!
1N
b0 V
b0 W
xX!
xY!
xZ!
x[!
x\!
x]!
x^!
bx _!
bx `!
bx a!
bx b!
bx c!
xh!
xi!
bx j!
bx k!
bx l!
b0 p
b11000000000010110010011 q
1r
1s
b0 t
b0 u
b0xx x
b0xx y
0{
1|
0}
0~
#10000
0!
0"
1$!
0(
0)
b0 3!
b0 4!
#15000
1!
b0 #!
0$!
b0 '!
1(
b11000000000010110010011 (!
1)!
1*!
1+!
b0 8!
b0 9!
b0 :!
b110 ;!
b0 <!
0=
b1011 =!
b0 >!
b110 ?!
b100 @
1@!
b10 A
0A!
0B!
0C!
0D!
1E!
b0 F!
b110 G
b10 G!
b110 H
b0 H!
0I
b0 I!
b1100 J
b110 J!
0K!
0L!
0M
0M!
0O
0P
0Q
0R
1S
1T
b0 U
b0 U!
b0 V!
b1100 W!
b110 X
xX!
b0 Y
xY!
b1011 Z
xZ!
b0 [
1[!
b110 \
x\!
b0 ]
x]!
x^!
bx _!
b0 `!
b0xx a!
bx b!
1c
bx c!
0d!
0e!
b0 f
b0xx g
xh!
xi!
0j
bx j!
bx k!
bx l!
b0 v
b0 w
b0 x
b0 y
b1100 z
#20000
0!
0(
#25000
1!
b100 #!
b1000 %!
b11000000000111010010011 &!
b0 '!
1(
b11000000000010110010011 (!
b100 /
b11000000000111010010011 0
b0 8!
b0 9!
b0 :!
b110 ;!
b0 <!
b1011 =!
b0 >!
bx ?
b110 ?!
b1000 @
1@!
0A!
0B!
0C!
0D!
1E!
b1000 F
b0 F!
b0 H!
b0 I!
b0 U!
b0 V!
1X!
0Y!
0Z!
0[!
0\!
0]!
0^
0^!
0_
b1100 _!
0`
b110 `!
0a
b0 a!
1b
b0 b!
0c
b1011 c!
0d
0d!
b1100 e
b110 f
b0 g
b0 h
xh!
b1011 i
xi!
bx j!
b0 k!
bx l!
b0 n
#30000
0!
0(
#35000
1!
b1000 #!
b1100 %!
b111100010011 &!
b100 '!
1(
b11000000000111010010011 (!
b1000 /
b111100010011 0
b11101 2
b110 6!
b0 8!
b0 9!
b0 :!
b110 ;!
b0 <!
b1011 =!
b0 >!
b110 ?
b110 ?!
b1100 @
1@!
0A!
0B!
0C!
0D!
1E!
b1100 F
b0 F!
b0 H!
b0 I!
b0 U!
b0 V!
1X!
0Y!
0Z!
0[!
0\!
0]!
0^!
b1100 _!
b110 `!
b0 a!
b0 b!
b1011 c!
1h!
0i!
bx j!
0k
b110 k!
1l
b1011 l!
b110 n
b1011 o
b100 p
b11000000000111010010011 q
#40000
0!
0(
b110 *
b0 3!
b0 4!
#45000
1!
b1100 #!
b10000 %!
b111100010011 &!
b1000 '!
1(
b111100010011 (!
1)!
1*!
1+!
b1100 /
b11110 2
b0 3!
b0 4!
b0 6
b0 6!
b100 8!
b0 9!
b0 :!
b110 ;!
b0 <!
b11101 =!
b0 >!
b110 ?!
b10000 @
1@!
0A!
0B!
0C!
b0 D
0D!
1E!
b10000 F
b0 F!
b100 U
b10000 W!
1X!
0Y!
b11101 Z
0Z!
0[!
0\!
0]!
0^!
b1100 _!
b110 `!
b0 a!
b0 b!
b1011 c!
1h!
0i!
bx j!
b110 k!
b1011 l!
b1000 p
b111100010011 q
b10000 z
#50000
0!
0(
#55000
1!
b10000 #!
b10100 %!
b11000000000111000010011 &!
b1100 '!
1(
b111100010011 (!
1)!
1*!
1+!
b10000 /
b11000000000111000010011 0
b1000 8!
b0 9!
b0 :!
b0 ;!
b0 <!
b11110 =!
b0 >!
b0 ?!
b10100 @
1@!
0A!
0B!
0C!
0D!
1E!
b10100 F
b0 F!
b0 G
b0 H
1I
b0 J
b0 J!
1K!
0L!
1M!
b1000 U
b0 U!
b0 V!
b1000 W!
b0 X
1X!
0Y!
b11110 Z
0Z!
0[!
b0 \
0\!
0]!
0^!
b10000 _!
b110 `!
b0 a!
b0 b!
b11101 c!
b10000 e
1h!
b11101 i
0i!
bx j!
b110 k!
b1011 l!
b1100 p
b1000 z
#60000
0!
0(
#65000
1!
b10100 #!
b11000 %!
b10000101111110010000000100011 &!
b10000 '!
1(
b11000000000111000010011 (!
1)!
1*!
1+!
b10100 /
b10000101111110010000000100011 0
b11100 2
b0 3!
b0 4!
b110 6
b110 6!
b1100 8!
b0 9!
b0 :!
b0 ;!
b0 <!
b11110 =!
b0 >!
b0 ?!
b11000 @
1@!
0A!
0B!
0C!
b110 D
0D!
1E!
b11000 F
b0 F!
b0 H!
b0 I!
b1100 U
b0 U!
b0 V!
b1100 W!
1X!
0Y!
0Z!
1[!
0\!
0]!
0^!
b1000 _!
b0 `!
b0 a!
b0 b!
1c
b11110 c!
0d!
b1000 e
b0 f
1h!
b11110 i
0i!
bx j!
b110 k!
b11101 l!
b11101 o
b10000 p
b11000000000111000010011 q
b1100 z
#70000
0!
0(
b0 3!
b0 4!
#75000
1!
b11000 #!
b11100 %!
b111111000111110010011 &!
b10100 '!
1(
b10000101111110010000000100011 (!
1)!
1*!
1+!
0,!
0-!
x.!
b11000 /
1/!
b111111000111110010011 0
10!
b100011 1
01!
b0 2
b0 2!
b10 3
b0 3!
b1000 4
b110 4!
b11110 5
b1011 6
b100000000 6!
b100011 7!
b10000 8!
x9
b0 9!
1:
b0 :!
b110 ;!
0<
b0 <!
b11100 =!
b0 >!
b0 ?
b110 ?!
b11100 @
1@!
0A!
0B!
b110 C
0C!
b100000000 D
0D!
1E!
b11100 F
b0 F!
b110 G
b110 H
b0 H!
0I
b0 I!
b1100 J
b110 J!
0K!
0L!
0M!
b10000 U
b0 U!
b0 V!
b11100 W!
b110 X
1X!
0Y!
b11100 Z
0Z!
1[!
b110 \
0\!
0]!
0^!
b1100 _!
b0 `!
b0 a!
b0 b!
b11110 c!
b1100 e
1h!
0i!
bx j!
b0 k!
b11110 l!
b0 n
b11110 o
b10100 p
b10000101111110010000000100011 q
b10 t
b11100 z
x{
0|
1~
#80000
0!
0(
#85000
1!
b11100 #!
b100000 %!
b100011110000111100010011 &!
b11000 '!
1(
b111111000111110010011 (!
1)!
1*!
1+!
0,!
0-!
0.!
b11100 /
0/!
b100011110000111100010011 0
10!
b10011 1
11!
b11111 2
b0 2!
b0 3
b0 3!
b0 4
b0 4!
b11111 5
b1 6
b1 6!
b10011 7!
b10100 8!
09
b0 9!
0:
b110 :!
b100000000 ;!
1<
b10 <!
b0 =!
b11110 >!
b1011 ?!
b100000 @
0@!
xA!
0B!
b0 C
1C!
b1 D
0D!
1E!
b100000 F
b0 F!
b100000000 G
b10 G!
b100000000 H
b0 H!
b110 I!
b1000000000 J
b100000000 J!
0K!
0L!
0M!
xQ
1R
0T
b10100 U
b1 U!
b0 V!
b110 W
b1000010100 W!
b100000000 X
1X!
b10 Y
0Y!
b0 Z
0Z!
b11110 [
0[!
b1011 \
0\!
0]!
0^!
b11100 _!
b110 `!
b0 a!
b0 b!
0c
b11100 c!
0d!
b11100 e
b110 f
1h!
b11100 i
0i!
bx j!
b0 k!
b11110 l!
b11000 p
b111111000111110010011 q
b0 t
b1 v
b110 y
b1000010100 z
0{
1|
0~
#90000
0!
0(
#95000
1!
b100000 #!
b100100 %!
b11111111111101011000010110010011 &!
b11100 '!
1(
b100011110000111100010011 (!
1)!
1*!
1+!
b100000 /
b11111111111101011000010110010011 0
b11110 2
b0 3!
b0 4!
b11110 5
b1000 6
b1000 6!
b11000 8!
b0 9!
b0 :!
b1 ;!
b0 <!
0=
b11111 =!
b11111 >!
b110 ?
b1 ?!
b100100 @
1@!
0A!
0B!
0C!
b1000 D
0D!
1E!
b100100 F
b0 F!
b1 G
b10 G!
b1 H
b0 H!
b0 I!
b10 J
b1 J!
0K!
0L!
0M!
0Q
0R
1T
b11000 U
b0 U!
b0 V!
b0 W
b11010 W!
b1 X
0X!
b0 Y
xY!
b11111 Z
0Z!
b11111 [
0[!
b1 \
1\!
0]!
0^!
b1000010100 _!
x`
b100000000 `!
1a
b110 a!
0b
b10 b!
b0 c!
0d!
b1000010100 e
b100000000 f
b110 g
b10 h
1h!
b0 i
0i!
bx j!
b110 k!
b11100 l!
b110 n
b11100 o
b11100 p
b100011110000111100010011 q
b0 v
b0 x
b0 y
b11010 z
#100000
0!
0(
b0 3!
b0 4!
#105000
1!
b110 #
b100100 #!
b101000 %!
b1111111100000010001100011 &!
b100000 '!
1(
b11111111111101011000010110010011 (!
1)!
1*!
1+!
b100100 /
b1111111100000010001100011 0
b1011 2
b110 3!
b1111111 4
b0 4!
b1011 5
b11111 6
b1111111111111111111111111111111111111111111111111111111111111111 6!
b11100 8!
b0 9!
b0 :!
b1000 ;!
b0 <!
b11110 =!
b11110 >!
bx ?
b1000 ?!
b101000 @
1@!
0A!
b110 B
0B!
0C!
b1111111111111111111111111111111111111111111111111111111111111111 D
0D!
1E!
b101000 F
b0 F!
b1000 G
b1000 H
b0 H!
b0 I!
b10000 J
b1000 J!
0K!
0L!
0M!
b11100 U
b0 U!
b0 V!
b101100 W!
b1000 X
1X!
0Y!
b11110 Z
0Z!
b11110 [
0[!
b1000 \
0\!
0]!
0^!
b11010 _!
0`
b1 `!
0a
b0 a!
1b
b0 b!
b11111 c!
0d!
b11010 e
b1 f
b0 g
b0 h
0h!
b11111 i
xi!
bx j!
xk
b100000000 k!
0l
b0 l!
b100000000 n
b0 o
b100000 p
b11111111111101011000010110010011 q
b1000 t
b101100 z
#110000
0!
0(
#115000
1!
0"!
b101000 #!
b101100 %!
b11111110000000000000011011100011 &!
b100100 '!
1(
b1111111100000010001100011 (!
1)!
1*!
1+!
1,!
0-!
x.!
b101000 /
0/!
b11111110000000000000011011100011 0
00!
b1100011 1
01!
b1000 2
b1 2!
b110 3!
b0 4
b0 4!
b11100 5
b100 6!
17
b1100011 7!
b100000 8!
x9
b110 9!
b0 :!
0;
b1111111111111111111111111111111111111111111111111111111111111111 ;!
0<
b1000 <!
b1011 =!
b1 >
b1011 >!
b1 ?
b11111 ?!
b101100 @
1@!
0A!
0B!
0C!
b100 D
0D!
1E!
b101100 F
b0 F!
b1111111111111111111111111111111111111111111111111111111111111111 G
b10 G!
b101 H
b110 H!
b1 I!
b1111111111111111111111111111111111111111111111111111111111111110 J
b101 J!
0K!
0L!
0M!
b100000 U
b0 U!
b110 V
b1 V!
b11110 W!
b1111111111111111111111111111111111111111111111111111111111111111 X
1X!
b1000 Y
0Y!
b1011 Z
0Z!
b1011 [
0[!
b11111 \
0\!
0]!
0^!
b101100 _!
b1000 `!
b0 a!
b0 b!
b11110 c!
b101100 e
b1000 f
1h!
b11110 i
0i!
bx j!
0k
b1 k!
1l
b11111 l!
b1 n
b11111 o
b100100 p
b1111111100000010001100011 q
b0 t
b1 u
b1 w
b110 x
b1 y
b11110 z
x{
0|
1}
#120000
0!
0(
b110 3!
b1 4!
b1 C
#125000
1!
b101100 #!
b110000 %!
b111100010011 &!
b101000 '!
1(
b11111110000000000000011011100011 (!
1)!
1*!
1+!
b101100 /
b111100010011 0
b1101 2
b0 3!
b1111111 4
b0 4!
b0 5
b0 6
b1111111111111111111111111111111111111111111111111111111111110110 6!
b100100 8!
b110 9!
b1 :!
b100 ;!
b0 <!
1=
b1000 =!
b11100 >!
b1000 ?
b11111 ?!
b110000 @
0@!
b110 A
xA!
b0 B
1B!
b0 C
0C!
b1111111111111111111111111111111111111111111111111111111111110110 D
0D!
0E!
b110000 F
b1 F!
b1 G
b110 G!
b101 H
b110 H!
b1 I!
b1000 J
b101 J!
0K!
1L!
0M!
1O
xQ
0S
0T
b100100 U
b0 U!
b0 V!
b1 W
b101100 W!
b100 X
1X!
b0 Y
0Y!
b1000 Z
0Z!
b11100 [
0[!
0\!
b1 ]
0]!
0^!
b11110 _!
b101 `!
b1 a!
b1000 b!
b1011 c!
0d!
b11110 e
b101 f
b1 g
b1000 h
1h!
b1011 i
0i!
bx j!
b1000 k!
b11110 l!
b1000 n
b11110 o
b101000 p
b11111110000000000000011011100011 q
b1000 t
b0 w
b1 y
b101100 z
#130000
0!
0(
b0 3!
b0 4!
#135000
1!
1"!
b110000 #!
b110100 %!
b11110000111110010011 &!
b101100 '!
1(
b111100010011 (!
1)!
1*!
1+!
0,!
0-!
0.!
b110000 /
0/!
b11110000111110010011 0
10!
b10011 1
11!
b11110 2
b0 2!
b0 4
b0 6!
07
b10011 7!
b101000 8!
09
b0 9!
b0 :!
1;
b1111111111111111111111111111111111111111111111111111111111110110 ;!
1<
b1000 <!
0=
b1101 =!
b0 >
b0 >!
b101 ?
b0 ?!
b110100 @
0@!
xA!
1B!
0C!
b0 D
0D!
0E!
b110100 F
b1 F!
b0 G
b110 G!
b0 H
b0 H!
1I
b0 I!
b1111111111111111111111111111111111111111111111111111111111101100 J
b0 J!
1K!
0L!
1M!
b101000 U
b0 U!
b0 V
b0 V!
b0 W
b10100 W!
b1111111111111111111111111111111111111111111111111111111111110110 X
0X!
b1000 Y
xY!
b1101 Z
1Z!
b0 [
0[!
b0 \
0\!
0]!
1^
1^!
b101100 _!
x`
b101 `!
b1 a!
0b
b0 b!
b1000 c!
1d
0d!
b101100 e
b0 h
1h!
b1000 i
0i!
bx j!
b101 k!
b1011 l!
b101 n
b1011 o
b101100 p
b111100010011 q
b0 t
b0 u
b0 x
b0 y
b10100 z
0{
1|
0}
#140000
0!
0(
b101 *
b0 3!
b0 4!
#145000
1!
b110100 #!
b111000 %!
b111010010011 &!
b110000 '!
1(
b11110000111110010011 (!
1)!
1*!
1+!
b110100 /
b111010010011 0
b11111 2
b1000 3!
b0 4!
b11110 5
b0 6!
b101100 8!
b0 9!
b0 :!
b0 ;!
b0 <!
b11110 =!
b0 >!
bx ?
b0 ?!
b10100 @
1@!
b10 A
0A!
b1000 B
0B!
0C!
0D!
1E!
b111000 F
b0 F!
b0 G
b10 G!
b0 H!
b0 I!
b0 J
b0 J!
1K!
0L!
1M
0O
0Q
1S
1T
b101100 U
b0 U!
b0 V!
b101100 W!
b0 X
0X!
b0 Y
xY!
b11110 Z
1Z!
1[!
0\!
b0 ]
0]!
0^!
b10100 _!
b0 `!
b0 a!
b1000 b!
1c
b1101 c!
0d
1d!
b10100 e
1e!
b0 f
b0 g
b1000 h
0h!
b1101 i
xi!
1j
bx j!
xk
b101 k!
0l
b1000 l!
b1000 o
b110000 p
b11110000111110010011 q
b101100 z
#150000
0!
0(
